Final-Project.utf8
…
Max sales occured in the month of January in the year 2015 (110971 products sold)

Its also interesting to note the pattern of increased sales in the months of December and January while taking two consecutive years. This might be due to Winter breaks for Christmas and New Year

As discussed previously, I could not perform statistical analysis due to the lack of availability of enough factors and continuous variables. Therefore, we will directly proceed to time series forecasting modeling in Review 3, below.

For time series analysis, we only require date and total amount of products sold per day therefore, we take subset of dataset and convert them to a time series dataset

#Sorting data according to the date
arrange(df_sales,df_sales$date)

## # A tibble: 2,935,849 x 12
## # Groups:   year, month, shop_id, item_id [1,609,124]
##    date       date_block_num shop_id item_id item_price item_cnt_day
##    <date>              <int>   <int>   <int>      <dbl>        <dbl>
##  1 2013-01-01              0      19   18976        399            1
##  2 2013-01-01              0      19   18284        199            1
##  3 2013-01-01              0      19   18320        199            1
##  4 2013-01-01              0      19   18329        299            1
##  5 2013-01-01              0      19   19367        399            1
##  6 2013-01-01              0      19   18823        299            1
##  7 2013-01-01              0      19   19413        399            1
##  8 2013-01-01              0      19   19366        399            1
##  9 2013-01-01              0      19   18721        149            1
## 10 2013-01-01              0      19   18638        149            1
## # ... with 2,935,839 more rows, and 6 more variables: item_category_id <int>,
## #   year <fct>, month <dbl>, day <int>, weekday <fct>, item_cnt_month <dbl>

 For forecasting total sales in a day, we group the data by date and find aggregate of products sold that day

df_agg=df_sales%>%group_by(date)%>%summarise(sales_count=sum(item_cnt_day))

## `summarise()` ungrouping output (override with `.groups` argument)

df_agg

## # A tibble: 1,034 x 2
##    date       sales_count
##    <date>           <dbl>
##  1 2013-01-01        1951
##  2 2013-01-02        8198
##  3 2013-01-03        7422
##  4 2013-01-04        6617
##  5 2013-01-05        6346
##  6 2013-01-06        5858
##  7 2013-01-07        4984
##  8 2013-01-08        4772
##  9 2013-01-09        3162
## 10 2013-01-10        3142
## # ... with 1,024 more rows
…
